Codificador/simulation/qsim/Codificador.msim.vcd
$comment
	File created using the following command:
		vcd file Codificador.msim.vcd -direction
$end
$date
	Wed Feb 16 21:20:11 2022
$end
$version
	ModelSim Version 10.5b
$end
$timescale
	1ps
$end

$scope module codificador_vhd_vec_tst $end
$var wire 1 ! A $end
$var wire 1 " B $end
$var wire 1 # C $end
$var wire 1 $ D $end
$var wire 1 % X $end
$var wire 1 & Y $end
$var wire 1 ' Z $end

$scope module i1 $end
$var wire 1 ( gnd $end
$var wire 1 ) vcc $end
$var wire 1 * unknown $end
$var wire 1 + devoe $end
$var wire 1 , devclrn $end
$var wire 1 - devpor $end
$var wire 1 . ww_devoe $end
$var wire 1 / ww_devclrn $end
$var wire 1 0 ww_devpor $end
$var wire 1 1 ww_A $end
$var wire 1 2 ww_B $end
$var wire 1 3 ww_C $end
$var wire 1 4 ww_D $end
$var wire 1 5 ww_X $end
$var wire 1 6 ww_Y $end
$var wire 1 7 ww_Z $end
$var wire 1 8 \~QUARTUS_CREATED_ADC1~_CHSEL_bus\ [4] $end
$var wire 1 9 \~QUARTUS_CREATED_ADC1~_CHSEL_bus\ [3] $end
$var wire 1 : \~QUARTUS_CREATED_ADC1~_CHSEL_bus\ [2] $end
$var wire 1 ; \~QUARTUS_CREATED_ADC1~_CHSEL_bus\ [1] $end
$var wire 1 < \~QUARTUS_CREATED_ADC1~_CHSEL_bus\ [0] $end
$var wire 1 = \~QUARTUS_CREATED_GND~I_combout\ $end
$var wire 1 > \~QUARTUS_CREATED_UNVM~~busy\ $end
$var wire 1 ? \~QUARTUS_CREATED_ADC1~~eoc\ $end
$var wire 1 @ \X~output_o\ $end
$var wire 1 A \Y~output_o\ $end
$var wire 1 B \Z~output_o\ $end
$var wire 1 C \A~input_o\ $end
$var wire 1 D \B~input_o\ $end
$var wire 1 E \N~combout\ $end
$var wire 1 F \D~input_o\ $end
$var wire 1 G \C~input_o\ $end
$var wire 1 H \Z~0_combout\ $end
$upscope $end
$upscope $end
$enddefinitions $end
#0
$dumpvars
0!
0"
0#
0$
0%
0&
0'
0(
1)
x*
1+
1,
1-
1.
1/
10
01
02
03
04
05
06
07
0=
z>
z?
0@
0A
0B
0C
0D
0E
0F
0G
0H
08
09
0:
0;
0<
$end
#10000
1#
13
1G
1H
1B
17
1'
#20000
0#
1"
03
12
1D
0G
1E
1A
16
1&
#30000
1#
13
1G
0H
0B
07
0'
#40000
0#
0"
1!
03
02
11
1C
0D
0G
1@
15
1%
#50000
1#
13
1G
1H
1B
17
1'
#60000
0#
1"
03
12
1D
0G
0E
0A
06
0&
#70000
1#
13
1G
0H
0B
07
0'
#80000
0#
0"
0!
1$
03
02
01
14
1F
0C
0D
0G
0@
05
0%
#90000
1#
13
1G
1H
1B
17
1'
#100000
0#
1"
03
12
1D
0G
1E
1A
16
1&
#110000
1#
13
1G
0H
0B
07
0'
#120000
0#
0"
1!
03
02
11
1C
0D
0G
1@
1H
15
1B
1%
17
1'
#130000
1#
13
1G
0H
0B
07
0'
#140000
0#
1"
03
12
1D
0G
0E
0A
06
0&
#150000
1#
13
1G
1H
1B
17
1'
#160000
0#
0"
0!
0$
03
02
01
04
0F
0C
0D
0G
0@
0H
05
0B
0%
07
0'
#170000
1#
13
1G
1H
1B
17
1'
#180000
0#
1"
03
12
1D
0G
1E
1A
16
1&
#190000
1#
13
1G
0H
0B
07
0'
#200000
0#
0"
1!
03
02
11
1C
0D
0G
1@
15
1%
#210000
1#
13
1G
1H
1B
17
1'
#220000
0#
1"
03
12
1D
0G
0E
0A
06
0&
#230000
1#
13
1G
0H
0B
07
0'
#240000
0#
0"
0!
1$
03
02
01
14
1F
0C
0D
0G
0@
05
0%
#250000
1#
13
1G
1H
1B
17
1'
#260000
0#
1"
03
12
1D
0G
1E
1A
16
1&
#270000
1#
13
1G
0H
0B
07
0'
#280000
0#
0"
1!
03
02
11
1C
0D
0G
1@
1H
15
1B
1%
17
1'
#290000
1#
13
1G
0H
0B
07
0'
#300000
0#
1"
03
12
1D
0G
0E
0A
06
0&
#310000
1#
13
1G
1H
1B
17
1'
#320000
0#
0"
0!
0$
03
02
01
04
0F
0C
0D
0G
0@
0H
05
0B
0%
07
0'
#330000
1#
13
1G
1H
1B
17
1'
#340000
0#
1"
03
12
1D
0G
1E
1A
16
1&
#350000
1#
13
1G
0H
0B
07
0'
#360000
0#
0"
1!
03
02
11
1C
0D
0G
1@
15
1%
#370000
1#
13
1G
1H
1B
17
1'
#380000
0#
1"
03
12
1D
0G
0E
0A
06
0&
#390000
1#
13
1G
0H
0B
07
0'
#400000
0#
0"
0!
1$
03
02
01
14
1F
0C
0D
0G
0@
05
0%
#410000
1#
13
1G
1H
1B
17
1'
#420000
0#
1"
03
12
1D
0G
1E
1A
16
1&
#430000
1#
13
1G
0H
0B
07
0'
#440000
0#
0"
1!
03
02
11
1C
0D
0G
1@
1H
15
1B
1%
17
1'
#450000
1#
13
1G
0H
0B
07
0'
#460000
0#
1"
03
12
1D
0G
0E
0A
06
0&
#470000
1#
13
1G
1H
1B
17
1'
#480000
0#
0"
0!
0$
03
02
01
04
0F
0C
0D
0G
0@
0H
05
0B
0%
07
0'
#490000
1#
13
1G
1H
1B
17
1'
#500000
0#
1"
03
12
1D
0G
1E
1A
16
1&
#510000
1#
13
1G
0H
0B
07
0'
#520000
0#
0"
1!
03
02
11
1C
0D
0G
1@
15
1%
#530000
1#
13
1G
1H
1B
17
1'
#540000
0#
1"
03
12
1D
0G
0E
0A
06
0&
#550000
1#
13
1G
0H
0B
07
0'
#560000
0#
0"
0!
1$
03
02
01
14
1F
0C
0D
0G
0@
05
0%
#570000
1#
13
1G
1H
1B
17
1'
#580000
0#
1"
03
12
1D
0G
1E
1A
16
1&
#590000
1#
13
1G
0H
0B
07
0'
#600000
0#
0"
1!
03
02
11
1C
0D
0G
1@
1H
15
1B
1%
17
1'
#610000
1#
13
1G
0H
0B
07
0'
#620000
0#
1"
03
12
1D
0G
0E
0A
06
0&
#630000
1#
13
1G
1H
1B
17
1'
#640000
0#
0"
0!
0$
03
02
01
04
0F
0C
0D
0G
0@
0H
05
0B
0%
07
0'
#650000
1#
13
1G
1H
1B
17
1'
#660000
0#
1"
03
12
1D
0G
1E
1A
16
1&
#670000
1#
13
1G
0H
0B
07
0'
#680000
0#
0"
1!
03
02
11
1C
0D
0G
1@
15
1%
#690000
1#
13
1G
1H
1B
17
1'
#700000
0#
1"
03
12
1D
0G
0E
0A
06
0&
#710000
1#
13
1G
0H
0B
07
0'
#720000
0#
0"
0!
1$
03
02
01
14
1F
0C
0D
0G
0@
05
0%
#730000
1#
13
1G
1H
1B
17
1'
#740000
0#
1"
03
12
1D
0G
1E
1A
16
1&
#750000
1#
13
1G
0H
0B
07
0'
#760000
0#
0"
1!
03
02
11
1C
0D
0G
1@
1H
15
1B
1%
17
1'
#770000
1#
13
1G
0H
0B
07
0'
#780000
0#
1"
03
12
1D
0G
0E
0A
06
0&
#790000
1#
13
1G
1H
1B
17
1'
#800000
0#
0"
0!
0$
03
02
01
04
0F
0C
0D
0G
0@
0H
05
0B
0%
07
0'
#810000
1#
13
1G
1H
1B
17
1'
#820000
0#
1"
03
12
1D
0G
1E
1A
16
1&
#830000
1#
13
1G
0H
0B
07
0'
#840000
0#
0"
1!
03
02
11
1C
0D
0G
1@
15
1%
#850000
1#
13
1G
1H
1B
17
1'
#860000
0#
1"
03
12
1D
0G
0E
0A
06
0&
#870000
1#
13
1G
0H
0B
07
0'
#880000
0#
0"
0!
1$
03
02
01
14
1F
0C
0D
0G
0@
05
0%
#890000
1#
13
1G
1H
1B
17
1'
#900000
0#
1"
03
12
1D
0G
1E
1A
16
1&
#910000
1#
13
1G
0H
0B
07
0'
#920000
0#
0"
1!
03
02
11
1C
0D
0G
1@
1H
15
1B
1%
17
1'
#930000
1#
13
1G
0H
0B
07
0'
#940000
0#
1"
03
12
1D
0G
0E
0A
06
0&
#950000
1#
13
1G
1H
1B
17
1'
#960000
0#
0"
0!
0$
03
02
01
04
0F
0C
0D
0G
0@
0H
05
0B
0%
07
0'
#970000
1#
13
1G
1H
1B
17
1'
#980000
0#
1"
03
12
1D
0G
1E
1A
16
1&
#990000
1#
13
1G
0H
0B
07
0'
