Coder/simulation/qsim/CODER.msim.vcd
$comment
	File created using the following command:
		vcd file CODER.msim.vcd -direction
$end
$date
	Thu Feb 17 11:30:58 2022
$end
$version
	ModelSim Version 10.5b
$end
$timescale
	1ps
$end

$scope module coder_vhd_vec_tst $end
$var wire 1 ! A $end
$var wire 1 " B $end
$var wire 1 # C $end
$var wire 1 $ Co $end
$var wire 1 % X $end
$var wire 1 & Y $end
$var wire 1 ' Z $end

$scope module i1 $end
$var wire 1 ( gnd $end
$var wire 1 ) vcc $end
$var wire 1 * unknown $end
$var wire 1 + devoe $end
$var wire 1 , devclrn $end
$var wire 1 - devpor $end
$var wire 1 . ww_devoe $end
$var wire 1 / ww_devclrn $end
$var wire 1 0 ww_devpor $end
$var wire 1 1 ww_A $end
$var wire 1 2 ww_B $end
$var wire 1 3 ww_C $end
$var wire 1 4 ww_Co $end
$var wire 1 5 ww_X $end
$var wire 1 6 ww_Y $end
$var wire 1 7 ww_Z $end
$var wire 1 8 \~QUARTUS_CREATED_ADC1~_CHSEL_bus\ [4] $end
$var wire 1 9 \~QUARTUS_CREATED_ADC1~_CHSEL_bus\ [3] $end
$var wire 1 : \~QUARTUS_CREATED_ADC1~_CHSEL_bus\ [2] $end
$var wire 1 ; \~QUARTUS_CREATED_ADC1~_CHSEL_bus\ [1] $end
$var wire 1 < \~QUARTUS_CREATED_ADC1~_CHSEL_bus\ [0] $end
$var wire 1 = \~QUARTUS_CREATED_GND~I_combout\ $end
$var wire 1 > \~QUARTUS_CREATED_UNVM~~busy\ $end
$var wire 1 ? \~QUARTUS_CREATED_ADC1~~eoc\ $end
$var wire 1 @ \X~output_o\ $end
$var wire 1 A \Y~output_o\ $end
$var wire 1 B \Z~output_o\ $end
$var wire 1 C \A~input_o\ $end
$var wire 1 D \B~input_o\ $end
$var wire 1 E \N~combout\ $end
$var wire 1 F \Co~input_o\ $end
$var wire 1 G \C~input_o\ $end
$var wire 1 H \Z~0_combout\ $end
$upscope $end
$upscope $end
$enddefinitions $end
#0
$dumpvars
0!
0"
0#
0$
0%
0&
0'
0(
1)
x*
1+
1,
1-
1.
1/
10
01
02
03
04
05
06
07
0=
z>
z?
0@
0A
0B
0C
0D
0E
0F
0G
0H
08
09
0:
0;
0<
$end
#40000
1$
14
1F
#80000
0$
1#
04
13
1G
0F
1H
1B
17
1'
#120000
1$
14
1F
#160000
0$
0#
1"
04
03
12
1D
0G
0F
1E
1A
16
1&
#200000
1$
14
1F
#240000
0$
1#
04
13
1G
0F
0H
0B
07
0'
#280000
1$
14
1F
#320000
0$
0#
0"
1!
04
03
02
11
1C
0D
0G
0F
1@
15
1%
#360000
1$
14
1F
1H
1B
17
1'
#400000
0$
1#
04
13
1G
0F
#440000
1$
14
1F
0H
0B
07
0'
#480000
0$
0#
1"
04
03
12
1D
0G
0F
0E
1H
1B
0A
17
06
1'
0&
#520000
1$
14
1F
0H
0B
07
0'
#560000
0$
1#
04
13
1G
0F
#600000
1$
14
1F
1H
1B
17
1'
#640000
0$
0#
0"
0!
04
03
02
01
0C
0D
0G
0F
0@
0H
05
0B
0%
07
0'
#680000
1$
14
1F
#720000
0$
1#
04
13
1G
0F
1H
1B
17
1'
#760000
1$
14
1F
#800000
0$
0#
1"
04
03
12
1D
0G
0F
1E
1A
16
1&
#840000
1$
14
1F
#880000
0$
1#
04
13
1G
0F
0H
0B
07
0'
#920000
1$
14
1F
#960000
0$
0#
0"
1!
04
03
02
11
1C
0D
0G
0F
1@
15
1%
