ContModuloX2/simulation/qsim/ContModuloX2.msim.vcd
$comment
	File created using the following command:
		vcd file ContModuloX2.msim.vcd -direction
$end
$date
	Tue Feb 22 19:51:47 2022
$end
$version
	ModelSim Version 10.5b
$end
$timescale
	1ps
$end

$scope module contmodulox2_vhd_vec_tst $end
$var wire 1 ! CLK $end
$var wire 1 " Cuenta [3] $end
$var wire 1 # Cuenta [2] $end
$var wire 1 $ Cuenta [1] $end
$var wire 1 % Cuenta [0] $end
$var wire 1 & RST $end

$scope module i1 $end
$var wire 1 ' gnd $end
$var wire 1 ( vcc $end
$var wire 1 ) unknown $end
$var wire 1 * devoe $end
$var wire 1 + devclrn $end
$var wire 1 , devpor $end
$var wire 1 - ww_devoe $end
$var wire 1 . ww_devclrn $end
$var wire 1 / ww_devpor $end
$var wire 1 0 ww_CLK $end
$var wire 1 1 ww_RST $end
$var wire 1 2 ww_Cuenta [3] $end
$var wire 1 3 ww_Cuenta [2] $end
$var wire 1 4 ww_Cuenta [1] $end
$var wire 1 5 ww_Cuenta [0] $end
$var wire 1 6 \~QUARTUS_CREATED_ADC1~_CHSEL_bus\ [4] $end
$var wire 1 7 \~QUARTUS_CREATED_ADC1~_CHSEL_bus\ [3] $end
$var wire 1 8 \~QUARTUS_CREATED_ADC1~_CHSEL_bus\ [2] $end
$var wire 1 9 \~QUARTUS_CREATED_ADC1~_CHSEL_bus\ [1] $end
$var wire 1 : \~QUARTUS_CREATED_ADC1~_CHSEL_bus\ [0] $end
$var wire 1 ; \RST~inputclkctrl_INCLK_bus\ [3] $end
$var wire 1 < \RST~inputclkctrl_INCLK_bus\ [2] $end
$var wire 1 = \RST~inputclkctrl_INCLK_bus\ [1] $end
$var wire 1 > \RST~inputclkctrl_INCLK_bus\ [0] $end
$var wire 1 ? \CLK~inputclkctrl_INCLK_bus\ [3] $end
$var wire 1 @ \CLK~inputclkctrl_INCLK_bus\ [2] $end
$var wire 1 A \CLK~inputclkctrl_INCLK_bus\ [1] $end
$var wire 1 B \CLK~inputclkctrl_INCLK_bus\ [0] $end
$var wire 1 C \~QUARTUS_CREATED_GND~I_combout\ $end
$var wire 1 D \~QUARTUS_CREATED_UNVM~~busy\ $end
$var wire 1 E \~QUARTUS_CREATED_ADC1~~eoc\ $end
$var wire 1 F \Cuenta[0]~output_o\ $end
$var wire 1 G \Cuenta[1]~output_o\ $end
$var wire 1 H \Cuenta[2]~output_o\ $end
$var wire 1 I \Cuenta[3]~output_o\ $end
$var wire 1 J \CLK~input_o\ $end
$var wire 1 K \CLK~inputclkctrl_outclk\ $end
$var wire 1 L \Q[0]~3_combout\ $end
$var wire 1 M \RST~input_o\ $end
$var wire 1 N \RST~inputclkctrl_outclk\ $end
$var wire 1 O \Q[1]~0_combout\ $end
$var wire 1 P \Q~2_combout\ $end
$var wire 1 Q \Q~1_combout\ $end
$var wire 1 R Q [3] $end
$var wire 1 S Q [2] $end
$var wire 1 T Q [1] $end
$var wire 1 U Q [0] $end
$upscope $end
$upscope $end
$enddefinitions $end
#0
$dumpvars
0!
0&
0'
1(
x)
1*
1+
1,
1-
1.
1/
00
01
0C
zD
zE
0F
0G
0H
0I
0J
0K
1L
0M
0N
0O
0P
0Q
02
03
04
05
0R
0S
0T
0U
1?
1@
1A
0B
1;
1<
1=
0>
06
07
08
09
0:
0"
0#
0$
0%
$end
#20000
1!
10
1J
1B
1K
#40000
0!
00
0J
0B
0K
#60000
1!
10
1J
1B
1K
#80000
0!
1&
00
11
1M
0J
1>
0B
0K
1N
#100000
1!
10
1J
1B
1K
1U
1F
0L
1O
15
1%
#120000
0!
00
0J
0B
0K
#140000
1!
10
1J
1B
1K
0U
1T
1G
0F
1L
14
05
0%
1$
#160000
0!
00
0J
0B
0K
#180000
1!
10
1J
1B
1K
1U
1F
0L
0O
1Q
15
1%
#200000
0!
00
0J
0B
0K
#220000
1!
10
1J
1B
1K
0U
0T
1S
1H
0G
0F
1L
13
04
05
0%
0$
1#
#240000
0!
00
0J
0B
0K
#260000
1!
10
1J
1B
1K
1U
1F
0L
1O
15
1%
#280000
0!
00
0J
0B
0K
#300000
1!
10
1J
1B
1K
0U
1T
1G
0F
1L
14
05
0%
1$
#320000
0!
00
0J
0B
0K
#340000
1!
10
1J
1B
1K
1U
1F
0L
0O
1P
0Q
15
1%
#360000
0!
00
0J
0B
0K
#380000
1!
10
1J
1B
1K
0U
0T
1R
0S
0H
1I
0G
0F
1L
03
12
04
05
0%
0$
0#
1"
#400000
0!
00
0J
0B
0K
#420000
1!
10
1J
1B
1K
1U
1F
0L
1O
15
1%
#440000
0!
00
0J
0B
0K
#460000
1!
10
1J
1B
1K
0U
1T
1G
0F
1L
14
05
0%
1$
#480000
0!
00
0J
0B
0K
#500000
1!
10
1J
1B
1K
1U
1F
0L
0O
0P
15
1%
#520000
0!
00
0J
0B
0K
#540000
1!
10
1J
1B
1K
0U
0T
0R
0I
0G
0F
1L
02
04
05
0%
0$
0"
#560000
0!
00
0J
0B
0K
#580000
1!
10
1J
1B
1K
1U
1F
0L
1O
15
1%
#600000
0!
00
0J
0B
0K
#620000
1!
10
1J
1B
1K
0U
1T
1G
0F
1L
14
05
0%
1$
#640000
0!
00
0J
0B
0K
#660000
1!
10
1J
1B
1K
1U
1F
0L
0O
1Q
15
1%
#680000
0!
00
0J
0B
0K
#700000
1!
10
1J
1B
1K
0U
0T
1S
1H
0G
0F
1L
13
04
05
0%
0$
1#
#720000
0!
00
0J
0B
0K
#740000
1!
10
1J
1B
1K
1U
1F
0L
1O
15
1%
#760000
0!
00
0J
0B
0K
#780000
1!
10
1J
1B
1K
0U
1T
1G
0F
1L
14
05
0%
1$
#800000
0!
00
0J
0B
0K
#820000
1!
10
1J
1B
1K
1U
1F
0L
0O
1P
0Q
15
1%
#840000
0!
00
0J
0B
0K
#860000
1!
10
1J
1B
1K
0U
0T
1R
0S
0H
1I
0G
0F
1L
03
12
04
05
0%
0$
0#
1"
#880000
0!
00
0J
0B
0K
#900000
1!
10
1J
1B
1K
1U
1F
0L
1O
15
1%
#920000
0!
00
0J
0B
0K
#940000
1!
10
1J
1B
1K
0U
1T
1G
0F
1L
14
05
0%
1$
#960000
0!
00
0J
0B
0K
#980000
1!
10
1J
1B
1K
1U
1F
0L
0O
0P
15
1%
