HA/simulation/qsim/HA.msim.vcd
$comment
	File created using the following command:
		vcd file HA.msim.vcd -direction
$end
$date
	Tue Feb 22 18:04:44 2022
$end
$version
	ModelSim Version 10.5b
$end
$timescale
	1ps
$end

$scope module ha_vhd_vec_tst $end
$var wire 1 ! A $end
$var wire 1 " B $end
$var wire 1 # Co $end
$var wire 1 $ S $end

$scope module i1 $end
$var wire 1 % gnd $end
$var wire 1 & vcc $end
$var wire 1 ' unknown $end
$var wire 1 ( devoe $end
$var wire 1 ) devclrn $end
$var wire 1 * devpor $end
$var wire 1 + ww_devoe $end
$var wire 1 , ww_devclrn $end
$var wire 1 - ww_devpor $end
$var wire 1 . ww_A $end
$var wire 1 / ww_B $end
$var wire 1 0 ww_S $end
$var wire 1 1 ww_Co $end
$var wire 1 2 \~QUARTUS_CREATED_ADC1~_CHSEL_bus\ [4] $end
$var wire 1 3 \~QUARTUS_CREATED_ADC1~_CHSEL_bus\ [3] $end
$var wire 1 4 \~QUARTUS_CREATED_ADC1~_CHSEL_bus\ [2] $end
$var wire 1 5 \~QUARTUS_CREATED_ADC1~_CHSEL_bus\ [1] $end
$var wire 1 6 \~QUARTUS_CREATED_ADC1~_CHSEL_bus\ [0] $end
$var wire 1 7 \~QUARTUS_CREATED_ADC2~_CHSEL_bus\ [4] $end
$var wire 1 8 \~QUARTUS_CREATED_ADC2~_CHSEL_bus\ [3] $end
$var wire 1 9 \~QUARTUS_CREATED_ADC2~_CHSEL_bus\ [2] $end
$var wire 1 : \~QUARTUS_CREATED_ADC2~_CHSEL_bus\ [1] $end
$var wire 1 ; \~QUARTUS_CREATED_ADC2~_CHSEL_bus\ [0] $end
$var wire 1 < \~QUARTUS_CREATED_GND~I_combout\ $end
$var wire 1 = \~QUARTUS_CREATED_UNVM~~busy\ $end
$var wire 1 > \~QUARTUS_CREATED_ADC1~~eoc\ $end
$var wire 1 ? \~QUARTUS_CREATED_ADC2~~eoc\ $end
$var wire 1 @ \S~output_o\ $end
$var wire 1 A \Co~output_o\ $end
$var wire 1 B \A~input_o\ $end
$var wire 1 C \B~input_o\ $end
$var wire 1 D \S~0_combout\ $end
$var wire 1 E \Co~0_combout\ $end
$upscope $end
$upscope $end
$enddefinitions $end
#0
$dumpvars
0!
0"
0#
0$
0%
1&
x'
1(
1)
1*
1+
1,
1-
0.
0/
00
01
0<
z=
z>
z?
0@
0A
0B
0C
0D
0E
02
03
04
05
06
07
08
09
0:
0;
$end
#10000
1!
1.
1B
1D
1@
10
1$
#20000
0!
1"
0.
1/
1C
0B
#30000
1!
1.
1B
0D
1E
1A
0@
11
00
1#
0$
#40000
0!
0"
0.
0/
0C
0B
0E
0A
01
0#
#50000
1!
1.
1B
1D
1@
10
1$
#60000
0!
1"
0.
1/
1C
0B
#70000
1!
1.
1B
0D
1E
1A
0@
11
00
1#
0$
#80000
0!
0"
0.
0/
0C
0B
0E
0A
01
0#
#90000
1!
1.
1B
1D
1@
10
1$
#100000
0!
1"
0.
1/
1C
0B
#110000
1!
1.
1B
0D
1E
1A
0@
11
00
1#
0$
#120000
0!
0"
0.
0/
0C
0B
0E
0A
01
0#
#130000
1!
1.
1B
1D
1@
10
1$
#140000
0!
1"
0.
1/
1C
0B
#150000
1!
1.
1B
0D
1E
1A
0@
11
00
1#
0$
#160000
0!
0"
0.
0/
0C
0B
0E
0A
01
0#
#170000
1!
1.
1B
1D
1@
10
1$
#180000
0!
1"
0.
1/
1C
0B
#190000
1!
1.
1B
0D
1E
1A
0@
11
00
1#
0$
#200000
0!
0"
0.
0/
0C
0B
0E
0A
01
0#
#210000
1!
1.
1B
1D
1@
10
1$
#220000
0!
1"
0.
1/
1C
0B
#230000
1!
1.
1B
0D
1E
1A
0@
11
00
1#
0$
#240000
0!
0"
0.
0/
0C
0B
0E
0A
01
0#
#250000
1!
1.
1B
1D
1@
10
1$
#260000
0!
1"
0.
1/
1C
0B
#270000
1!
1.
1B
0D
1E
1A
0@
11
00
1#
0$
#280000
0!
0"
0.
0/
0C
0B
0E
0A
01
0#
#290000
1!
1.
1B
1D
1@
10
1$
#300000
0!
1"
0.
1/
1C
0B
#310000
1!
1.
1B
0D
1E
1A
0@
11
00
1#
0$
#320000
0!
0"
0.
0/
0C
0B
0E
0A
01
0#
#330000
1!
1.
1B
1D
1@
10
1$
#340000
0!
1"
0.
1/
1C
0B
#350000
1!
1.
1B
0D
1E
1A
0@
11
00
1#
0$
#360000
0!
0"
0.
0/
0C
0B
0E
0A
01
0#
#370000
1!
1.
1B
1D
1@
10
1$
#380000
0!
1"
0.
1/
1C
0B
#390000
1!
1.
1B
0D
1E
1A
0@
11
00
1#
0$
#400000
0!
0"
0.
0/
0C
0B
0E
0A
01
0#
#410000
1!
1.
1B
1D
1@
10
1$
#420000
0!
1"
0.
1/
1C
0B
#430000
1!
1.
1B
0D
1E
1A
0@
11
00
1#
0$
#440000
0!
0"
0.
0/
0C
0B
0E
0A
01
0#
#450000
1!
1.
1B
1D
1@
10
1$
#460000
0!
1"
0.
1/
1C
0B
#470000
1!
1.
1B
0D
1E
1A
0@
11
00
1#
0$
#480000
0!
0"
0.
0/
0C
0B
0E
0A
01
0#
#490000
1!
1.
1B
1D
1@
10
1$
#500000
0!
1"
0.
1/
1C
0B
#510000
1!
1.
1B
0D
1E
1A
0@
11
00
1#
0$
#520000
0!
0"
0.
0/
0C
0B
0E
0A
01
0#
#530000
1!
1.
1B
1D
1@
10
1$
#540000
0!
1"
0.
1/
1C
0B
#550000
1!
1.
1B
0D
1E
1A
0@
11
00
1#
0$
#560000
0!
0"
0.
0/
0C
0B
0E
0A
01
0#
#570000
1!
1.
1B
1D
1@
10
1$
#580000
0!
1"
0.
1/
1C
0B
#590000
1!
1.
1B
0D
1E
1A
0@
11
00
1#
0$
#600000
0!
0"
0.
0/
0C
0B
0E
0A
01
0#
#610000
1!
1.
1B
1D
1@
10
1$
#620000
0!
1"
0.
1/
1C
0B
#630000
1!
1.
1B
0D
1E
1A
0@
11
00
1#
0$
#640000
0!
0"
0.
0/
0C
0B
0E
0A
01
0#
#650000
1!
1.
1B
1D
1@
10
1$
#660000
0!
1"
0.
1/
1C
0B
#670000
1!
1.
1B
0D
1E
1A
0@
11
00
1#
0$
#680000
0!
0"
0.
0/
0C
0B
0E
0A
01
0#
#690000
1!
1.
1B
1D
1@
10
1$
#700000
0!
1"
0.
1/
1C
0B
#710000
1!
1.
1B
0D
1E
1A
0@
11
00
1#
0$
#720000
0!
0"
0.
0/
0C
0B
0E
0A
01
0#
#730000
1!
1.
1B
1D
1@
10
1$
#740000
0!
1"
0.
1/
1C
0B
#750000
1!
1.
1B
0D
1E
1A
0@
11
00
1#
0$
#760000
0!
0"
0.
0/
0C
0B
0E
0A
01
0#
#770000
1!
1.
1B
1D
1@
10
1$
#780000
0!
1"
0.
1/
1C
0B
#790000
1!
1.
1B
0D
1E
1A
0@
11
00
1#
0$
#800000
0!
0"
0.
0/
0C
0B
0E
0A
01
0#
#810000
1!
1.
1B
1D
1@
10
1$
#820000
0!
1"
0.
1/
1C
0B
#830000
1!
1.
1B
0D
1E
1A
0@
11
00
1#
0$
#840000
0!
0"
0.
0/
0C
0B
0E
0A
01
0#
#850000
1!
1.
1B
1D
1@
10
1$
#860000
0!
1"
0.
1/
1C
0B
#870000
1!
1.
1B
0D
1E
1A
0@
11
00
1#
0$
#880000
0!
0"
0.
0/
0C
0B
0E
0A
01
0#
#890000
1!
1.
1B
1D
1@
10
1$
#900000
0!
1"
0.
1/
1C
0B
#910000
1!
1.
1B
0D
1E
1A
0@
11
00
1#
0$
#920000
0!
0"
0.
0/
0C
0B
0E
0A
01
0#
#930000
1!
1.
1B
1D
1@
10
1$
#940000
0!
1"
0.
1/
1C
0B
#950000
1!
1.
1B
0D
1E
1A
0@
11
00
1#
0$
#960000
0!
0"
0.
0/
0C
0B
0E
0A
01
0#
#970000
1!
1.
1B
1D
1@
10
1$
#980000
0!
1"
0.
1/
1C
0B
#990000
1!
1.
1B
0D
1E
1A
0@
11
00
1#
0$
