MUX8a1ifs/simulation/qsim/MUX8a1ifs.msim.vcd
$comment
	File created using the following command:
		vcd file MUX8a1ifs.msim.vcd -direction
$end
$date
	Tue Feb 22 17:57:38 2022
$end
$version
	ModelSim Version 10.5b
$end
$timescale
	1ps
$end

$scope module mux8a1ifs_vhd_vec_tst $end
$var wire 1 ! A $end
$var wire 1 " B $end
$var wire 1 # C $end
$var wire 1 $ D $end
$var wire 1 % E $end
$var wire 1 & F $end
$var wire 1 ' G $end
$var wire 1 ( H $end
$var wire 1 ) S [2] $end
$var wire 1 * S [1] $end
$var wire 1 + S [0] $end
$var wire 1 , Salida $end

$scope module i1 $end
$var wire 1 - gnd $end
$var wire 1 . vcc $end
$var wire 1 / unknown $end
$var wire 1 0 devoe $end
$var wire 1 1 devclrn $end
$var wire 1 2 devpor $end
$var wire 1 3 ww_devoe $end
$var wire 1 4 ww_devclrn $end
$var wire 1 5 ww_devpor $end
$var wire 1 6 ww_S [2] $end
$var wire 1 7 ww_S [1] $end
$var wire 1 8 ww_S [0] $end
$var wire 1 9 ww_A $end
$var wire 1 : ww_B $end
$var wire 1 ; ww_C $end
$var wire 1 < ww_D $end
$var wire 1 = ww_E $end
$var wire 1 > ww_F $end
$var wire 1 ? ww_G $end
$var wire 1 @ ww_H $end
$var wire 1 A ww_Salida $end
$var wire 1 B \~QUARTUS_CREATED_ADC1~_CHSEL_bus\ [4] $end
$var wire 1 C \~QUARTUS_CREATED_ADC1~_CHSEL_bus\ [3] $end
$var wire 1 D \~QUARTUS_CREATED_ADC1~_CHSEL_bus\ [2] $end
$var wire 1 E \~QUARTUS_CREATED_ADC1~_CHSEL_bus\ [1] $end
$var wire 1 F \~QUARTUS_CREATED_ADC1~_CHSEL_bus\ [0] $end
$var wire 1 G \~QUARTUS_CREATED_ADC2~_CHSEL_bus\ [4] $end
$var wire 1 H \~QUARTUS_CREATED_ADC2~_CHSEL_bus\ [3] $end
$var wire 1 I \~QUARTUS_CREATED_ADC2~_CHSEL_bus\ [2] $end
$var wire 1 J \~QUARTUS_CREATED_ADC2~_CHSEL_bus\ [1] $end
$var wire 1 K \~QUARTUS_CREATED_ADC2~_CHSEL_bus\ [0] $end
$var wire 1 L \~QUARTUS_CREATED_GND~I_combout\ $end
$var wire 1 M \~QUARTUS_CREATED_UNVM~~busy\ $end
$var wire 1 N \~QUARTUS_CREATED_ADC1~~eoc\ $end
$var wire 1 O \~QUARTUS_CREATED_ADC2~~eoc\ $end
$var wire 1 P \Salida~output_o\ $end
$var wire 1 Q \G~input_o\ $end
$var wire 1 R \S[1]~input_o\ $end
$var wire 1 S \C~input_o\ $end
$var wire 1 T \A~input_o\ $end
$var wire 1 U \E~input_o\ $end
$var wire 1 V \S[2]~input_o\ $end
$var wire 1 W \Salida~2_combout\ $end
$var wire 1 X \Salida~3_combout\ $end
$var wire 1 Y \S[0]~input_o\ $end
$var wire 1 Z \H~input_o\ $end
$var wire 1 [ \F~input_o\ $end
$var wire 1 \ \B~input_o\ $end
$var wire 1 ] \D~input_o\ $end
$var wire 1 ^ \Salida~0_combout\ $end
$var wire 1 _ \Salida~1_combout\ $end
$var wire 1 ` \Salida~4_combout\ $end
$upscope $end
$upscope $end
$enddefinitions $end
#0
$dumpvars
0!
0"
0#
0$
0%
0&
0'
0(
0,
0-
1.
x/
10
11
12
13
14
15
09
0:
0;
0<
0=
0>
0?
0@
0A
0L
zM
zN
zO
0P
0Q
0R
0S
0T
0U
0V
0W
0X
0Y
0Z
0[
0\
0]
0^
0_
0`
0)
0*
0+
06
07
08
0B
0C
0D
0E
0F
0G
0H
0I
0J
0K
$end
#10000
1!
1#
1%
1'
19
1;
1=
1?
1Q
1U
1S
1T
1W
1X
1`
1P
1A
1,
#20000
0!
0#
0%
0'
1"
1$
1&
1(
1+
09
0;
0=
0?
1:
1<
1>
1@
18
1Y
1Z
1[
1]
1\
0Q
0U
0S
0T
0W
1^
0`
0P
1_
0X
0A
1`
0,
1P
1A
1,
#30000
1!
1#
1%
1'
19
1;
1=
1?
1Q
1U
1S
1T
1W
1X
#40000
0!
0#
0%
0'
0"
0$
0&
0(
0+
1*
09
0;
0=
0?
0:
0<
0>
0@
08
17
1R
0Y
0Z
0[
0]
0\
0Q
0U
0S
0T
0W
0X
0^
0_
0`
0P
0A
0,
#50000
1!
1#
1%
1'
19
1;
1=
1?
1Q
1U
1S
1T
1X
1`
1P
1A
1,
#60000
0!
0#
0%
0'
1"
1$
1&
1(
1+
09
0;
0=
0?
1:
1<
1>
1@
18
1Y
1Z
1[
1]
1\
0Q
0U
0S
0T
0X
1^
0`
0P
1_
0A
1`
0,
1P
1A
1,
#70000
1!
1#
1%
1'
19
1;
1=
1?
1Q
1U
1S
1T
1X
#80000
0!
0#
0%
0'
0"
0$
0&
0(
0+
0*
1)
09
0;
0=
0?
0:
0<
0>
0@
08
07
16
1V
0R
0Y
0Z
0[
0]
0\
0Q
0U
0S
0T
0X
0^
0_
0`
0P
0A
0,
#90000
1!
1#
1%
1'
19
1;
1=
1?
1Q
1U
1S
1T
1W
1X
1`
1P
1A
1,
#100000
0!
0#
0%
0'
1"
1$
1&
1(
1+
09
0;
0=
0?
1:
1<
1>
1@
18
1Y
1Z
1[
1]
1\
0Q
0U
0S
0T
0W
1_
0`
0P
1`
0X
0A
1P
0,
1A
1,
#110000
1!
1#
1%
1'
19
1;
1=
1?
1Q
1U
1S
1T
1W
1X
#120000
0!
0#
0%
0'
0"
0$
0&
0(
0+
1*
09
0;
0=
0?
0:
0<
0>
0@
08
17
1R
0Y
0Z
0[
0]
0\
0Q
0U
0S
0T
0_
0X
1^
0`
0P
0A
0,
#130000
1!
1#
1%
1'
19
1;
1=
1?
1Q
1U
1S
1T
1X
1`
1P
1A
1,
#140000
0!
0#
0%
0'
1"
1$
1&
1(
1+
09
0;
0=
0?
1:
1<
1>
1@
18
1Y
1Z
1[
1]
1\
0Q
0U
0S
0T
0X
1_
0`
0P
1`
0A
1P
0,
1A
1,
#150000
1!
1#
1%
1'
19
1;
1=
1?
1Q
1U
1S
1T
1X
#160000
0!
0#
0%
0'
0"
0$
0&
0(
0+
0*
0)
09
0;
0=
0?
0:
0<
0>
0@
08
07
06
0V
0R
0Y
0Z
0[
0]
0\
0Q
0U
0S
0T
0W
0^
0_
0X
0`
0P
0A
0,
#170000
1!
1#
1%
1'
19
1;
1=
1?
1Q
1U
1S
1T
1W
1X
1`
1P
1A
1,
#180000
0!
0#
0%
0'
1"
1$
1&
1(
1+
09
0;
0=
0?
1:
1<
1>
1@
18
1Y
1Z
1[
1]
1\
0Q
0U
0S
0T
0W
1^
0`
0P
1_
0X
0A
1`
0,
1P
1A
1,
#190000
1!
1#
1%
1'
19
1;
1=
1?
1Q
1U
1S
1T
1W
1X
#200000
0!
0#
0%
0'
0"
0$
0&
0(
0+
1*
09
0;
0=
0?
0:
0<
0>
0@
08
17
1R
0Y
0Z
0[
0]
0\
0Q
0U
0S
0T
0W
0X
0^
0_
0`
0P
0A
0,
#210000
1!
1#
1%
1'
19
1;
1=
1?
1Q
1U
1S
1T
1X
1`
1P
1A
1,
#220000
0!
0#
0%
0'
1"
1$
1&
1(
1+
09
0;
0=
0?
1:
1<
1>
1@
18
1Y
1Z
1[
1]
1\
0Q
0U
0S
0T
0X
1^
0`
0P
1_
0A
1`
0,
1P
1A
1,
#230000
1!
1#
1%
1'
19
1;
1=
1?
1Q
1U
1S
1T
1X
#240000
0!
0#
0%
0'
0"
0$
0&
0(
0+
0*
1)
09
0;
0=
0?
0:
0<
0>
0@
08
07
16
1V
0R
0Y
0Z
0[
0]
0\
0Q
0U
0S
0T
0X
0^
0_
0`
0P
0A
0,
#250000
1!
1#
1%
1'
19
1;
1=
1?
1Q
1U
1S
1T
1W
1X
1`
1P
1A
1,
#260000
0!
0#
0%
0'
1"
1$
1&
1(
1+
09
0;
0=
0?
1:
1<
1>
1@
18
1Y
1Z
1[
1]
1\
0Q
0U
0S
0T
0W
1_
0`
0P
1`
0X
0A
1P
0,
1A
1,
#270000
1!
1#
1%
1'
19
1;
1=
1?
1Q
1U
1S
1T
1W
1X
#280000
0!
0#
0%
0'
0"
0$
0&
0(
0+
1*
09
0;
0=
0?
0:
0<
0>
0@
08
17
1R
0Y
0Z
0[
0]
0\
0Q
0U
0S
0T
0_
0X
1^
0`
0P
0A
0,
#290000
1!
1#
1%
1'
19
1;
1=
1?
1Q
1U
1S
1T
1X
1`
1P
1A
1,
#300000
0!
0#
0%
0'
1"
1$
1&
1(
1+
09
0;
0=
0?
1:
1<
1>
1@
18
1Y
1Z
1[
1]
1\
0Q
0U
0S
0T
0X
1_
0`
0P
1`
0A
1P
0,
1A
1,
#310000
1!
1#
1%
1'
19
1;
1=
1?
1Q
1U
1S
1T
1X
#320000
0!
0#
0%
0'
0"
0$
0&
0(
0+
0*
0)
09
0;
0=
0?
0:
0<
0>
0@
08
07
06
0V
0R
0Y
0Z
0[
0]
0\
0Q
0U
0S
0T
0W
0^
0_
0X
0`
0P
0A
0,
#330000
1!
1#
1%
1'
19
1;
1=
1?
1Q
1U
1S
1T
1W
1X
1`
1P
1A
1,
#340000
0!
0#
0%
0'
1"
1$
1&
1(
1+
09
0;
0=
0?
1:
1<
1>
1@
18
1Y
1Z
1[
1]
1\
0Q
0U
0S
0T
0W
1^
0`
0P
1_
0X
0A
1`
0,
1P
1A
1,
#350000
1!
1#
1%
1'
19
1;
1=
1?
1Q
1U
1S
1T
1W
1X
#360000
0!
0#
0%
0'
0"
0$
0&
0(
0+
1*
09
0;
0=
0?
0:
0<
0>
0@
08
17
1R
0Y
0Z
0[
0]
0\
0Q
0U
0S
0T
0W
0X
0^
0_
0`
0P
0A
0,
#370000
1!
1#
1%
1'
19
1;
1=
1?
1Q
1U
1S
1T
1X
1`
1P
1A
1,
#380000
0!
0#
0%
0'
1"
1$
1&
1(
1+
09
0;
0=
0?
1:
1<
1>
1@
18
1Y
1Z
1[
1]
1\
0Q
0U
0S
0T
0X
1^
0`
0P
1_
0A
1`
0,
1P
1A
1,
#390000
1!
1#
1%
1'
19
1;
1=
1?
1Q
1U
1S
1T
1X
#400000
0!
0#
0%
0'
0"
0$
0&
0(
0+
0*
1)
09
0;
0=
0?
0:
0<
0>
0@
08
07
16
1V
0R
0Y
0Z
0[
0]
0\
0Q
0U
0S
0T
0X
0^
0_
0`
0P
0A
0,
#410000
1!
1#
1%
1'
19
1;
1=
1?
1Q
1U
1S
1T
1W
1X
1`
1P
1A
1,
#420000
0!
0#
0%
0'
1"
1$
1&
1(
1+
09
0;
0=
0?
1:
1<
1>
1@
18
1Y
1Z
1[
1]
1\
0Q
0U
0S
0T
0W
1_
0`
0P
1`
0X
0A
1P
0,
1A
1,
#430000
1!
1#
1%
1'
19
1;
1=
1?
1Q
1U
1S
1T
1W
1X
#440000
0!
0#
0%
0'
0"
0$
0&
0(
0+
1*
09
0;
0=
0?
0:
0<
0>
0@
08
17
1R
0Y
0Z
0[
0]
0\
0Q
0U
0S
0T
0_
0X
1^
0`
0P
0A
0,
#450000
1!
1#
1%
1'
19
1;
1=
1?
1Q
1U
1S
1T
1X
1`
1P
1A
1,
#460000
0!
0#
0%
0'
1"
1$
1&
1(
1+
09
0;
0=
0?
1:
1<
1>
1@
18
1Y
1Z
1[
1]
1\
0Q
0U
0S
0T
0X
1_
0`
0P
1`
0A
1P
0,
1A
1,
#470000
1!
1#
1%
1'
19
1;
1=
1?
1Q
1U
1S
1T
1X
#480000
0!
0#
0%
0'
0"
0$
0&
0(
0+
0*
0)
09
0;
0=
0?
0:
0<
0>
0@
08
07
06
0V
0R
0Y
0Z
0[
0]
0\
0Q
0U
0S
0T
0W
0^
0_
0X
0`
0P
0A
0,
#490000
1!
1#
1%
1'
19
1;
1=
1?
1Q
1U
1S
1T
1W
1X
1`
1P
1A
1,
#500000
0!
0#
0%
0'
1"
1$
1&
1(
1+
09
0;
0=
0?
1:
1<
1>
1@
18
1Y
1Z
1[
1]
1\
0Q
0U
0S
0T
0W
1^
0`
0P
1_
0X
0A
1`
0,
1P
1A
1,
#510000
1!
1#
1%
1'
19
1;
1=
1?
1Q
1U
1S
1T
1W
1X
#520000
0!
0#
0%
0'
0"
0$
0&
0(
0+
1*
09
0;
0=
0?
0:
0<
0>
0@
08
17
1R
0Y
0Z
0[
0]
0\
0Q
0U
0S
0T
0W
0X
0^
0_
0`
0P
0A
0,
#530000
1!
1#
1%
1'
19
1;
1=
1?
1Q
1U
1S
1T
1X
1`
1P
1A
1,
#540000
0!
0#
0%
0'
1"
1$
1&
1(
1+
09
0;
0=
0?
1:
1<
1>
1@
18
1Y
1Z
1[
1]
1\
0Q
0U
0S
0T
0X
1^
0`
0P
1_
0A
1`
0,
1P
1A
1,
#550000
1!
1#
1%
1'
19
1;
1=
1?
1Q
1U
1S
1T
1X
#560000
0!
0#
0%
0'
0"
0$
0&
0(
0+
0*
1)
09
0;
0=
0?
0:
0<
0>
0@
08
07
16
1V
0R
0Y
0Z
0[
0]
0\
0Q
0U
0S
0T
0X
0^
0_
0`
0P
0A
0,
#570000
1!
1#
1%
1'
19
1;
1=
1?
1Q
1U
1S
1T
1W
1X
1`
1P
1A
1,
#580000
0!
0#
0%
0'
1"
1$
1&
1(
1+
09
0;
0=
0?
1:
1<
1>
1@
18
1Y
1Z
1[
1]
1\
0Q
0U
0S
0T
0W
1_
0`
0P
1`
0X
0A
1P
0,
1A
1,
#590000
1!
1#
1%
1'
19
1;
1=
1?
1Q
1U
1S
1T
1W
1X
#600000
0!
0#
0%
0'
0"
0$
0&
0(
0+
1*
09
0;
0=
0?
0:
0<
0>
0@
08
17
1R
0Y
0Z
0[
0]
0\
0Q
0U
0S
0T
0_
0X
1^
0`
0P
0A
0,
#610000
1!
1#
1%
1'
19
1;
1=
1?
1Q
1U
1S
1T
1X
1`
1P
1A
1,
#620000
0!
0#
0%
0'
1"
1$
1&
1(
1+
09
0;
0=
0?
1:
1<
1>
1@
18
1Y
1Z
1[
1]
1\
0Q
0U
0S
0T
0X
1_
0`
0P
1`
0A
1P
0,
1A
1,
#630000
1!
1#
1%
1'
19
1;
1=
1?
1Q
1U
1S
1T
1X
#640000
0!
0#
0%
0'
0"
0$
0&
0(
0+
0*
0)
09
0;
0=
0?
0:
0<
0>
0@
08
07
06
0V
0R
0Y
0Z
0[
0]
0\
0Q
0U
0S
0T
0W
0^
0_
0X
0`
0P
0A
0,
#650000
1!
1#
1%
1'
19
1;
1=
1?
1Q
1U
1S
1T
1W
1X
1`
1P
1A
1,
#660000
0!
0#
0%
0'
1"
1$
1&
1(
1+
09
0;
0=
0?
1:
1<
1>
1@
18
1Y
1Z
1[
1]
1\
0Q
0U
0S
0T
0W
1^
0`
0P
1_
0X
0A
1`
0,
1P
1A
1,
#670000
1!
1#
1%
1'
19
1;
1=
1?
1Q
1U
1S
1T
1W
1X
#680000
0!
0#
0%
0'
0"
0$
0&
0(
0+
1*
09
0;
0=
0?
0:
0<
0>
0@
08
17
1R
0Y
0Z
0[
0]
0\
0Q
0U
0S
0T
0W
0X
0^
0_
0`
0P
0A
0,
#690000
1!
1#
1%
1'
19
1;
1=
1?
1Q
1U
1S
1T
1X
1`
1P
1A
1,
#700000
0!
0#
0%
0'
1"
1$
1&
1(
1+
09
0;
0=
0?
1:
1<
1>
1@
18
1Y
1Z
1[
1]
1\
0Q
0U
0S
0T
0X
1^
0`
0P
1_
0A
1`
0,
1P
1A
1,
#710000
1!
1#
1%
1'
19
1;
1=
1?
1Q
1U
1S
1T
1X
#720000
0!
0#
0%
0'
0"
0$
0&
0(
0+
0*
1)
09
0;
0=
0?
0:
0<
0>
0@
08
07
16
1V
0R
0Y
0Z
0[
0]
0\
0Q
0U
0S
0T
0X
0^
0_
0`
0P
0A
0,
#730000
1!
1#
1%
1'
19
1;
1=
1?
1Q
1U
1S
1T
1W
1X
1`
1P
1A
1,
#740000
0!
0#
0%
0'
1"
1$
1&
1(
1+
09
0;
0=
0?
1:
1<
1>
1@
18
1Y
1Z
1[
1]
1\
0Q
0U
0S
0T
0W
1_
0`
0P
1`
0X
0A
1P
0,
1A
1,
#750000
1!
1#
1%
1'
19
1;
1=
1?
1Q
1U
1S
1T
1W
1X
#760000
0!
0#
0%
0'
0"
0$
0&
0(
0+
1*
09
0;
0=
0?
0:
0<
0>
0@
08
17
1R
0Y
0Z
0[
0]
0\
0Q
0U
0S
0T
0_
0X
1^
0`
0P
0A
0,
#770000
1!
1#
1%
1'
19
1;
1=
1?
1Q
1U
1S
1T
1X
1`
1P
1A
1,
#780000
0!
0#
0%
0'
1"
1$
1&
1(
1+
09
0;
0=
0?
1:
1<
1>
1@
18
1Y
1Z
1[
1]
1\
0Q
0U
0S
0T
0X
1_
0`
0P
1`
0A
1P
0,
1A
1,
#790000
1!
1#
1%
1'
19
1;
1=
1?
1Q
1U
1S
1T
1X
#800000
0!
0#
0%
0'
0"
0$
0&
0(
0+
0*
0)
09
0;
0=
0?
0:
0<
0>
0@
08
07
06
0V
0R
0Y
0Z
0[
0]
0\
0Q
0U
0S
0T
0W
0^
0_
0X
0`
0P
0A
0,
#810000
1!
1#
1%
1'
19
1;
1=
1?
1Q
1U
1S
1T
1W
1X
1`
1P
1A
1,
#820000
0!
0#
0%
0'
1"
1$
1&
1(
1+
09
0;
0=
0?
1:
1<
1>
1@
18
1Y
1Z
1[
1]
1\
0Q
0U
0S
0T
0W
1^
0`
0P
1_
0X
0A
1`
0,
1P
1A
1,
#830000
1!
1#
1%
1'
19
1;
1=
1?
1Q
1U
1S
1T
1W
1X
#840000
0!
0#
0%
0'
0"
0$
0&
0(
0+
1*
09
0;
0=
0?
0:
0<
0>
0@
08
17
1R
0Y
0Z
0[
0]
0\
0Q
0U
0S
0T
0W
0X
0^
0_
0`
0P
0A
0,
#850000
1!
1#
1%
1'
19
1;
1=
1?
1Q
1U
1S
1T
1X
1`
1P
1A
1,
#860000
0!
0#
0%
0'
1"
1$
1&
1(
1+
09
0;
0=
0?
1:
1<
1>
1@
18
1Y
1Z
1[
1]
1\
0Q
0U
0S
0T
0X
1^
0`
0P
1_
0A
1`
0,
1P
1A
1,
#870000
1!
1#
1%
1'
19
1;
1=
1?
1Q
1U
1S
1T
1X
#880000
0!
0#
0%
0'
0"
0$
0&
0(
0+
0*
1)
09
0;
0=
0?
0:
0<
0>
0@
08
07
16
1V
0R
0Y
0Z
0[
0]
0\
0Q
0U
0S
0T
0X
0^
0_
0`
0P
0A
0,
#890000
1!
1#
1%
1'
19
1;
1=
1?
1Q
1U
1S
1T
1W
1X
1`
1P
1A
1,
#900000
0!
0#
0%
0'
1"
1$
1&
1(
1+
09
0;
0=
0?
1:
1<
1>
1@
18
1Y
1Z
1[
1]
1\
0Q
0U
0S
0T
0W
1_
0`
0P
1`
0X
0A
1P
0,
1A
1,
#910000
1!
1#
1%
1'
19
1;
1=
1?
1Q
1U
1S
1T
1W
1X
#920000
0!
0#
0%
0'
0"
0$
0&
0(
0+
1*
09
0;
0=
0?
0:
0<
0>
0@
08
17
1R
0Y
0Z
0[
0]
0\
0Q
0U
0S
0T
0_
0X
1^
0`
0P
0A
0,
#930000
1!
1#
1%
1'
19
1;
1=
1?
1Q
1U
1S
1T
1X
1`
1P
1A
1,
#940000
0!
0#
0%
0'
1"
1$
1&
1(
1+
09
0;
0=
0?
1:
1<
1>
1@
18
1Y
1Z
1[
1]
1\
0Q
0U
0S
0T
0X
1_
0`
0P
1`
0A
1P
0,
1A
1,
#950000
1!
1#
1%
1'
19
1;
1=
1?
1Q
1U
1S
1T
1X
#960000
0!
0#
0%
0'
0"
0$
0&
0(
0+
0*
0)
09
0;
0=
0?
0:
0<
0>
0@
08
07
06
0V
0R
0Y
0Z
0[
0]
0\
0Q
0U
0S
0T
0W
0^
0_
0X
0`
0P
0A
0,
#970000
1!
1#
1%
1'
19
1;
1=
1?
1Q
1U
1S
1T
1W
1X
1`
1P
1A
1,
#980000
0!
0#
0%
0'
1"
1$
1&
1(
1+
09
0;
0=
0?
1:
1<
1>
1@
18
1Y
1Z
1[
1]
1\
0Q
0U
0S
0T
0W
1^
0`
0P
1_
0X
0A
1`
0,
1P
1A
1,
#990000
1!
1#
1%
1'
19
1;
1=
1?
1Q
1U
1S
1T
1W
1X
