ContModuloX/simulation/qsim/ContModuloX.msim.vcd
$comment
	File created using the following command:
		vcd file ContModuloX.msim.vcd -direction
$end
$date
	Tue Feb 22 19:43:37 2022
$end
$version
	ModelSim Version 10.5b
$end
$timescale
	1ps
$end

$scope module contmodulox_vhd_vec_tst $end
$var wire 1 ! CLK $end
$var wire 1 " Cuenta [3] $end
$var wire 1 # Cuenta [2] $end
$var wire 1 $ Cuenta [1] $end
$var wire 1 % Cuenta [0] $end
$var wire 1 & RST $end

$scope module i1 $end
$var wire 1 ' gnd $end
$var wire 1 ( vcc $end
$var wire 1 ) unknown $end
$var wire 1 * devoe $end
$var wire 1 + devclrn $end
$var wire 1 , devpor $end
$var wire 1 - ww_devoe $end
$var wire 1 . ww_devclrn $end
$var wire 1 / ww_devpor $end
$var wire 1 0 ww_CLK $end
$var wire 1 1 ww_RST $end
$var wire 1 2 ww_Cuenta [3] $end
$var wire 1 3 ww_Cuenta [2] $end
$var wire 1 4 ww_Cuenta [1] $end
$var wire 1 5 ww_Cuenta [0] $end
$var wire 1 6 \~QUARTUS_CREATED_ADC1~_CHSEL_bus\ [4] $end
$var wire 1 7 \~QUARTUS_CREATED_ADC1~_CHSEL_bus\ [3] $end
$var wire 1 8 \~QUARTUS_CREATED_ADC1~_CHSEL_bus\ [2] $end
$var wire 1 9 \~QUARTUS_CREATED_ADC1~_CHSEL_bus\ [1] $end
$var wire 1 : \~QUARTUS_CREATED_ADC1~_CHSEL_bus\ [0] $end
$var wire 1 ; \CLK~inputclkctrl_INCLK_bus\ [3] $end
$var wire 1 < \CLK~inputclkctrl_INCLK_bus\ [2] $end
$var wire 1 = \CLK~inputclkctrl_INCLK_bus\ [1] $end
$var wire 1 > \CLK~inputclkctrl_INCLK_bus\ [0] $end
$var wire 1 ? \~QUARTUS_CREATED_GND~I_combout\ $end
$var wire 1 @ \~QUARTUS_CREATED_UNVM~~busy\ $end
$var wire 1 A \~QUARTUS_CREATED_ADC1~~eoc\ $end
$var wire 1 B \Cuenta[0]~output_o\ $end
$var wire 1 C \Cuenta[1]~output_o\ $end
$var wire 1 D \Cuenta[2]~output_o\ $end
$var wire 1 E \Cuenta[3]~output_o\ $end
$var wire 1 F \CLK~input_o\ $end
$var wire 1 G \CLK~inputclkctrl_outclk\ $end
$var wire 1 H \I0|Q[0]~3_combout\ $end
$var wire 1 I \RST~input_o\ $end
$var wire 1 J \I0|Q[1]~0_combout\ $end
$var wire 1 K \I0|Q[2]~1_combout\ $end
$var wire 1 L \I0|Q[3]~2_combout\ $end
$var wire 1 M \RST_INT~0_combout\ $end
$var wire 1 N \RST_INT~1_combout\ $end
$var wire 1 O \I0|Q\ [3] $end
$var wire 1 P \I0|Q\ [2] $end
$var wire 1 Q \I0|Q\ [1] $end
$var wire 1 R \I0|Q\ [0] $end
$var wire 1 S \ALT_INV_RST_INT~1_combout\ $end
$upscope $end
$upscope $end
$enddefinitions $end
#0
$dumpvars
0!
0&
0'
1(
x)
1*
1+
1,
1-
1.
1/
00
01
0?
z@
zA
0B
0C
0D
0E
0F
0G
1H
0I
0J
0K
0L
0M
1N
0S
0"
0#
0$
0%
02
03
04
05
0O
0P
0Q
0R
1;
1<
1=
0>
06
07
08
09
0:
$end
#20000
1!
10
1F
1>
1G
#40000
0!
00
0F
0>
0G
#60000
1!
10
1F
1>
1G
#80000
0!
1&
00
11
1I
0F
0>
0N
1S
0G
#100000
1!
10
1F
1>
1G
1R
1B
0H
1J
15
1%
#120000
0!
00
0F
0>
0G
#140000
1!
10
1F
1>
1G
1Q
0R
0B
1C
1H
05
14
0%
1$
#160000
0!
00
0F
0>
0G
#180000
1!
10
1F
1>
1G
1R
1B
0H
0J
1K
15
1%
#200000
0!
00
0F
0>
0G
#220000
1!
10
1F
1>
1G
0Q
1P
0R
0B
1D
0C
1H
05
13
04
0%
0$
1#
#240000
0!
00
0F
0>
0G
#260000
1!
10
1F
1>
1G
1R
1B
0H
1J
15
1%
#280000
0!
00
0F
0>
0G
#300000
1!
10
1F
1>
1G
1Q
0R
0B
1C
1H
05
14
0%
1$
#320000
0!
00
0F
0>
0G
#340000
1!
10
1F
1>
1G
1R
1B
0H
0J
0K
1L
15
1%
#360000
0!
00
0F
0>
0G
#380000
1!
10
1F
1>
1G
0Q
0P
1O
0R
0B
1E
0D
0C
1H
1M
05
12
03
04
0%
0$
0#
1"
#400000
0!
00
0F
0>
0G
#420000
1!
10
1F
1>
1G
1R
1B
0H
1J
15
1%
#440000
0!
00
0F
0>
0G
#460000
1!
10
1F
1>
1G
1Q
0R
0B
1C
1H
0M
05
14
0%
1$
#480000
0!
00
0F
0>
0G
#500000
1!
10
1F
1>
1G
1R
1B
0H
0J
1K
15
1%
#520000
0!
00
0F
0>
0G
#540000
1!
10
1F
1>
1G
0Q
1P
0R
0B
1D
0C
1H
1M
05
13
04
1N
0%
0$
1#
0S
0P
0O
0E
0D
0M
0K
0L
0N
1S
02
03
0#
0"
#560000
0!
00
0F
0>
0G
#580000
1!
10
1F
1>
1G
1R
1B
0H
1J
15
1%
#600000
0!
00
0F
0>
0G
#620000
1!
10
1F
1>
1G
1Q
0R
0B
1C
1H
05
14
0%
1$
#640000
0!
00
0F
0>
0G
#660000
1!
10
1F
1>
1G
1R
1B
0H
0J
1K
15
1%
#680000
0!
00
0F
0>
0G
#700000
1!
10
1F
1>
1G
0Q
1P
0R
0B
1D
0C
1H
05
13
04
0%
0$
1#
#720000
0!
00
0F
0>
0G
#740000
1!
10
1F
1>
1G
1R
1B
0H
1J
15
1%
#760000
0!
00
0F
0>
0G
#780000
1!
10
1F
1>
1G
1Q
0R
0B
1C
1H
05
14
0%
1$
#800000
0!
00
0F
0>
0G
#820000
1!
10
1F
1>
1G
1R
1B
0H
0J
0K
1L
15
1%
#840000
0!
00
0F
0>
0G
#860000
1!
10
1F
1>
1G
0Q
0P
1O
0R
0B
1E
0D
0C
1H
1M
05
12
03
04
0%
0$
0#
1"
#880000
0!
00
0F
0>
0G
#900000
1!
10
1F
1>
1G
1R
1B
0H
1J
15
1%
#920000
0!
00
0F
0>
0G
#940000
1!
10
1F
1>
1G
1Q
0R
0B
1C
1H
0M
05
14
0%
1$
#960000
0!
00
0F
0>
0G
#980000
1!
10
1F
1>
1G
1R
1B
0H
0J
1K
15
1%
