FA/simulation/qsim/FA.msim.vcd
$comment
	File created using the following command:
		vcd file FA.msim.vcd -direction
$end
$date
	Tue Feb 22 18:02:26 2022
$end
$version
	ModelSim Version 10.5b
$end
$timescale
	1ps
$end

$scope module fa_vhd_vec_tst $end
$var wire 1 ! A $end
$var wire 1 " B $end
$var wire 1 # Cin $end
$var wire 1 $ Co $end
$var wire 1 % S $end

$scope module i1 $end
$var wire 1 & gnd $end
$var wire 1 ' vcc $end
$var wire 1 ( unknown $end
$var wire 1 ) devoe $end
$var wire 1 * devclrn $end
$var wire 1 + devpor $end
$var wire 1 , ww_devoe $end
$var wire 1 - ww_devclrn $end
$var wire 1 . ww_devpor $end
$var wire 1 / ww_A $end
$var wire 1 0 ww_B $end
$var wire 1 1 ww_Cin $end
$var wire 1 2 ww_S $end
$var wire 1 3 ww_Co $end
$var wire 1 4 \~QUARTUS_CREATED_ADC1~_CHSEL_bus\ [4] $end
$var wire 1 5 \~QUARTUS_CREATED_ADC1~_CHSEL_bus\ [3] $end
$var wire 1 6 \~QUARTUS_CREATED_ADC1~_CHSEL_bus\ [2] $end
$var wire 1 7 \~QUARTUS_CREATED_ADC1~_CHSEL_bus\ [1] $end
$var wire 1 8 \~QUARTUS_CREATED_ADC1~_CHSEL_bus\ [0] $end
$var wire 1 9 \~QUARTUS_CREATED_ADC2~_CHSEL_bus\ [4] $end
$var wire 1 : \~QUARTUS_CREATED_ADC2~_CHSEL_bus\ [3] $end
$var wire 1 ; \~QUARTUS_CREATED_ADC2~_CHSEL_bus\ [2] $end
$var wire 1 < \~QUARTUS_CREATED_ADC2~_CHSEL_bus\ [1] $end
$var wire 1 = \~QUARTUS_CREATED_ADC2~_CHSEL_bus\ [0] $end
$var wire 1 > \~QUARTUS_CREATED_GND~I_combout\ $end
$var wire 1 ? \~QUARTUS_CREATED_UNVM~~busy\ $end
$var wire 1 @ \~QUARTUS_CREATED_ADC1~~eoc\ $end
$var wire 1 A \~QUARTUS_CREATED_ADC2~~eoc\ $end
$var wire 1 B \S~output_o\ $end
$var wire 1 C \Co~output_o\ $end
$var wire 1 D \Cin~input_o\ $end
$var wire 1 E \B~input_o\ $end
$var wire 1 F \A~input_o\ $end
$var wire 1 G \I1|S~0_combout\ $end
$var wire 1 H \Co~0_combout\ $end
$upscope $end
$upscope $end
$enddefinitions $end
#0
$dumpvars
0!
0"
0#
0$
0%
0&
1'
x(
1)
1*
1+
1,
1-
1.
0/
00
01
02
03
0>
z?
z@
zA
0B
0C
0D
0E
0F
0G
0H
04
05
06
07
08
09
0:
0;
0<
0=
$end
#10000
1!
1/
1F
1G
1B
12
1%
#20000
0!
1"
0/
10
1E
0F
#30000
1!
1/
1F
0G
1H
1C
0B
13
02
1$
0%
#40000
0!
0"
1#
0/
00
11
1D
0E
0F
1G
0H
0C
1B
03
12
0$
1%
#50000
1!
1/
1F
0G
1H
1C
0B
13
02
1$
0%
#60000
0!
1"
0/
10
1E
0F
#70000
1!
1/
1F
1G
1B
12
1%
#80000
0!
0"
0#
0/
00
01
0D
0E
0F
0G
0H
0C
0B
03
02
0$
0%
#90000
1!
1/
1F
1G
1B
12
1%
#100000
0!
1"
0/
10
1E
0F
#110000
1!
1/
1F
0G
1H
1C
0B
13
02
1$
0%
#120000
0!
0"
1#
0/
00
11
1D
0E
0F
1G
0H
0C
1B
03
12
0$
1%
#130000
1!
1/
1F
0G
1H
1C
0B
13
02
1$
0%
#140000
0!
1"
0/
10
1E
0F
#150000
1!
1/
1F
1G
1B
12
1%
#160000
0!
0"
0#
0/
00
01
0D
0E
0F
0G
0H
0C
0B
03
02
0$
0%
#170000
1!
1/
1F
1G
1B
12
1%
#180000
0!
1"
0/
10
1E
0F
#190000
1!
1/
1F
0G
1H
1C
0B
13
02
1$
0%
#200000
0!
0"
1#
0/
00
11
1D
0E
0F
1G
0H
0C
1B
03
12
0$
1%
#210000
1!
1/
1F
0G
1H
1C
0B
13
02
1$
0%
#220000
0!
1"
0/
10
1E
0F
#230000
1!
1/
1F
1G
1B
12
1%
#240000
0!
0"
0#
0/
00
01
0D
0E
0F
0G
0H
0C
0B
03
02
0$
0%
#250000
1!
1/
1F
1G
1B
12
1%
#260000
0!
1"
0/
10
1E
0F
#270000
1!
1/
1F
0G
1H
1C
0B
13
02
1$
0%
#280000
0!
0"
1#
0/
00
11
1D
0E
0F
1G
0H
0C
1B
03
12
0$
1%
#290000
1!
1/
1F
0G
1H
1C
0B
13
02
1$
0%
#300000
0!
1"
0/
10
1E
0F
#310000
1!
1/
1F
1G
1B
12
1%
#320000
0!
0"
0#
0/
00
01
0D
0E
0F
0G
0H
0C
0B
03
02
0$
0%
#330000
1!
1/
1F
1G
1B
12
1%
#340000
0!
1"
0/
10
1E
0F
#350000
1!
1/
1F
0G
1H
1C
0B
13
02
1$
0%
#360000
0!
0"
1#
0/
00
11
1D
0E
0F
1G
0H
0C
1B
03
12
0$
1%
#370000
1!
1/
1F
0G
1H
1C
0B
13
02
1$
0%
#380000
0!
1"
0/
10
1E
0F
#390000
1!
1/
1F
1G
1B
12
1%
#400000
0!
0"
0#
0/
00
01
0D
0E
0F
0G
0H
0C
0B
03
02
0$
0%
#410000
1!
1/
1F
1G
1B
12
1%
#420000
0!
1"
0/
10
1E
0F
#430000
1!
1/
1F
0G
1H
1C
0B
13
02
1$
0%
#440000
0!
0"
1#
0/
00
11
1D
0E
0F
1G
0H
0C
1B
03
12
0$
1%
#450000
1!
1/
1F
0G
1H
1C
0B
13
02
1$
0%
#460000
0!
1"
0/
10
1E
0F
#470000
1!
1/
1F
1G
1B
12
1%
#480000
0!
0"
0#
0/
00
01
0D
0E
0F
0G
0H
0C
0B
03
02
0$
0%
#490000
1!
1/
1F
1G
1B
12
1%
#500000
0!
1"
0/
10
1E
0F
#510000
1!
1/
1F
0G
1H
1C
0B
13
02
1$
0%
#520000
0!
0"
1#
0/
00
11
1D
0E
0F
1G
0H
0C
1B
03
12
0$
1%
#530000
1!
1/
1F
0G
1H
1C
0B
13
02
1$
0%
#540000
0!
1"
0/
10
1E
0F
#550000
1!
1/
1F
1G
1B
12
1%
#560000
0!
0"
0#
0/
00
01
0D
0E
0F
0G
0H
0C
0B
03
02
0$
0%
#570000
1!
1/
1F
1G
1B
12
1%
#580000
0!
1"
0/
10
1E
0F
#590000
1!
1/
1F
0G
1H
1C
0B
13
02
1$
0%
#600000
0!
0"
1#
0/
00
11
1D
0E
0F
1G
0H
0C
1B
03
12
0$
1%
#610000
1!
1/
1F
0G
1H
1C
0B
13
02
1$
0%
#620000
0!
1"
0/
10
1E
0F
#630000
1!
1/
1F
1G
1B
12
1%
#640000
0!
0"
0#
0/
00
01
0D
0E
0F
0G
0H
0C
0B
03
02
0$
0%
#650000
1!
1/
1F
1G
1B
12
1%
#660000
0!
1"
0/
10
1E
0F
#670000
1!
1/
1F
0G
1H
1C
0B
13
02
1$
0%
#680000
0!
0"
1#
0/
00
11
1D
0E
0F
1G
0H
0C
1B
03
12
0$
1%
#690000
1!
1/
1F
0G
1H
1C
0B
13
02
1$
0%
#700000
0!
1"
0/
10
1E
0F
#710000
1!
1/
1F
1G
1B
12
1%
#720000
0!
0"
0#
0/
00
01
0D
0E
0F
0G
0H
0C
0B
03
02
0$
0%
#730000
1!
1/
1F
1G
1B
12
1%
#740000
0!
1"
0/
10
1E
0F
#750000
1!
1/
1F
0G
1H
1C
0B
13
02
1$
0%
#760000
0!
0"
1#
0/
00
11
1D
0E
0F
1G
0H
0C
1B
03
12
0$
1%
#770000
1!
1/
1F
0G
1H
1C
0B
13
02
1$
0%
#780000
0!
1"
0/
10
1E
0F
#790000
1!
1/
1F
1G
1B
12
1%
#800000
0!
0"
0#
0/
00
01
0D
0E
0F
0G
0H
0C
0B
03
02
0$
0%
#810000
1!
1/
1F
1G
1B
12
1%
#820000
0!
1"
0/
10
1E
0F
#830000
1!
1/
1F
0G
1H
1C
0B
13
02
1$
0%
#840000
0!
0"
1#
0/
00
11
1D
0E
0F
1G
0H
0C
1B
03
12
0$
1%
#850000
1!
1/
1F
0G
1H
1C
0B
13
02
1$
0%
#860000
0!
1"
0/
10
1E
0F
#870000
1!
1/
1F
1G
1B
12
1%
#880000
0!
0"
0#
0/
00
01
0D
0E
0F
0G
0H
0C
0B
03
02
0$
0%
#890000
1!
1/
1F
1G
1B
12
1%
#900000
0!
1"
0/
10
1E
0F
#910000
1!
1/
1F
0G
1H
1C
0B
13
02
1$
0%
#920000
0!
0"
1#
0/
00
11
1D
0E
0F
1G
0H
0C
1B
03
12
0$
1%
#930000
1!
1/
1F
0G
1H
1C
0B
13
02
1$
0%
#940000
0!
1"
0/
10
1E
0F
#950000
1!
1/
1F
1G
1B
12
1%
#960000
0!
0"
0#
0/
00
01
0D
0E
0F
0G
0H
0C
0B
03
02
0$
0%
#970000
1!
1/
1F
1G
1B
12
1%
#980000
0!
1"
0/
10
1E
0F
#990000
1!
1/
1F
0G
1H
1C
0B
13
02
1$
0%
