RC4/simulation/qsim/RC4.msim.vcd
$comment
	File created using the following command:
		vcd file RC4.msim.vcd -direction
$end
$date
	Tue Feb 22 18:01:13 2022
$end
$version
	ModelSim Version 10.5b
$end
$timescale
	1ps
$end

$scope module rc4_vhd_vec_tst $end
$var wire 1 ! Cin $end
$var wire 1 " Co $end
$var wire 1 # S [3] $end
$var wire 1 $ S [2] $end
$var wire 1 % S [1] $end
$var wire 1 & S [0] $end
$var wire 1 ' X [3] $end
$var wire 1 ( X [2] $end
$var wire 1 ) X [1] $end
$var wire 1 * X [0] $end
$var wire 1 + Y [3] $end
$var wire 1 , Y [2] $end
$var wire 1 - Y [1] $end
$var wire 1 . Y [0] $end

$scope module i1 $end
$var wire 1 / gnd $end
$var wire 1 0 vcc $end
$var wire 1 1 unknown $end
$var wire 1 2 devoe $end
$var wire 1 3 devclrn $end
$var wire 1 4 devpor $end
$var wire 1 5 ww_devoe $end
$var wire 1 6 ww_devclrn $end
$var wire 1 7 ww_devpor $end
$var wire 1 8 ww_X [3] $end
$var wire 1 9 ww_X [2] $end
$var wire 1 : ww_X [1] $end
$var wire 1 ; ww_X [0] $end
$var wire 1 < ww_Y [3] $end
$var wire 1 = ww_Y [2] $end
$var wire 1 > ww_Y [1] $end
$var wire 1 ? ww_Y [0] $end
$var wire 1 @ ww_Cin $end
$var wire 1 A ww_S [3] $end
$var wire 1 B ww_S [2] $end
$var wire 1 C ww_S [1] $end
$var wire 1 D ww_S [0] $end
$var wire 1 E ww_Co $end
$var wire 1 F \~QUARTUS_CREATED_ADC1~_CHSEL_bus\ [4] $end
$var wire 1 G \~QUARTUS_CREATED_ADC1~_CHSEL_bus\ [3] $end
$var wire 1 H \~QUARTUS_CREATED_ADC1~_CHSEL_bus\ [2] $end
$var wire 1 I \~QUARTUS_CREATED_ADC1~_CHSEL_bus\ [1] $end
$var wire 1 J \~QUARTUS_CREATED_ADC1~_CHSEL_bus\ [0] $end
$var wire 1 K \~QUARTUS_CREATED_ADC2~_CHSEL_bus\ [4] $end
$var wire 1 L \~QUARTUS_CREATED_ADC2~_CHSEL_bus\ [3] $end
$var wire 1 M \~QUARTUS_CREATED_ADC2~_CHSEL_bus\ [2] $end
$var wire 1 N \~QUARTUS_CREATED_ADC2~_CHSEL_bus\ [1] $end
$var wire 1 O \~QUARTUS_CREATED_ADC2~_CHSEL_bus\ [0] $end
$var wire 1 P \~QUARTUS_CREATED_GND~I_combout\ $end
$var wire 1 Q \~QUARTUS_CREATED_UNVM~~busy\ $end
$var wire 1 R \~QUARTUS_CREATED_ADC1~~eoc\ $end
$var wire 1 S \~QUARTUS_CREATED_ADC2~~eoc\ $end
$var wire 1 T \S[0]~output_o\ $end
$var wire 1 U \S[1]~output_o\ $end
$var wire 1 V \S[2]~output_o\ $end
$var wire 1 W \S[3]~output_o\ $end
$var wire 1 X \Co~output_o\ $end
$var wire 1 Y \X[0]~input_o\ $end
$var wire 1 Z \Y[0]~input_o\ $end
$var wire 1 [ \Cin~input_o\ $end
$var wire 1 \ \I0|I1|S~0_combout\ $end
$var wire 1 ] \X[1]~input_o\ $end
$var wire 1 ^ \I0|Co~0_combout\ $end
$var wire 1 _ \Y[1]~input_o\ $end
$var wire 1 ` \I1|I1|S~combout\ $end
$var wire 1 a \I1|Co~0_combout\ $end
$var wire 1 b \X[2]~input_o\ $end
$var wire 1 c \Y[2]~input_o\ $end
$var wire 1 d \I2|I1|S~combout\ $end
$var wire 1 e \X[3]~input_o\ $end
$var wire 1 f \Y[3]~input_o\ $end
$var wire 1 g \I2|Co~0_combout\ $end
$var wire 1 h \I3|I1|S~combout\ $end
$var wire 1 i \I3|Co~0_combout\ $end
$upscope $end
$upscope $end
$enddefinitions $end
#0
$dumpvars
0!
0"
0/
10
x1
12
13
14
15
16
17
0@
0E
0P
zQ
zR
zS
0T
0U
0V
0W
0X
0Y
0Z
0[
0\
0]
0^
0_
0`
0a
0b
0c
0d
0e
0f
0g
0h
0i
0'
0(
0)
0*
0+
0,
0-
0.
08
09
0:
0;
0<
0=
0>
0?
0A
0B
0C
0D
0F
0G
0H
0I
0J
0K
0L
0M
0N
0O
0#
0$
0%
0&
$end
#20000
1!
1@
1[
1\
1T
1D
1&
#40000
0!
1*
0@
1;
1Y
0[
#60000
1!
1@
1[
0\
1^
0T
1`
0D
1U
0&
1C
1%
#80000
0!
0*
1)
1.
0@
0;
1:
1?
1Z
1]
0Y
0[
0`
1a
1\
0^
1T
0U
1`
0a
1d
1D
0C
1V
1U
0d
1&
0%
1B
1C
0V
1%
1$
0B
0$
#100000
1!
1@
1[
0\
1^
0T
0`
1a
0D
0U
1d
0&
0C
1V
0%
1B
1$
#120000
0!
1*
0@
1;
1Y
0[
#140000
1!
1@
1[
1\
1T
1D
1&
#160000
0!
0*
0)
0.
1(
1-
0@
0;
0:
19
0?
1>
1_
0Z
1b
0]
0Y
0[
0d
1g
0\
0^
0T
0V
1`
0a
1h
0D
0B
1W
1U
1d
0g
0&
0$
1A
1C
1V
0h
1%
1#
1B
0W
1$
0A
0#
#180000
1!
1@
1[
1\
1T
1D
1&
#200000
0!
1*
0@
1;
1Y
0[
#220000
1!
1@
1[
0\
1^
0T
0`
1a
0D
0U
0d
1g
0&
0C
0V
1h
0%
0B
1W
0$
1A
1#
#240000
0!
0*
1)
1.
0@
0;
1:
1?
1Z
1]
0Y
0[
1`
1\
0^
1T
1U
0`
1D
1C
0U
1&
1%
0C
0%
#260000
1!
1@
1[
0\
1^
0T
1`
0D
1U
0&
1C
1%
#280000
0!
1*
0@
1;
1Y
0[
#300000
1!
1@
1[
1\
1T
1D
1&
#320000
0!
0*
0)
0.
0(
0-
1'
1,
0@
0;
0:
09
18
0?
0>
1=
1c
0_
0Z
1e
0b
0]
0Y
0[
0h
1i
0\
0^
0a
0T
1X
0W
1d
0g
0`
0D
1E
0A
0U
1V
1h
0i
0&
0#
1"
0C
1B
0X
1W
0%
1$
0E
1A
0"
1#
#340000
1!
1@
1[
1\
1T
1D
1&
#360000
0!
1*
0@
1;
1Y
0[
#380000
1!
1@
1[
0\
1^
0T
1`
0D
1U
0&
1C
1%
#400000
0!
0*
1)
1.
0@
0;
1:
1?
1Z
1]
0Y
0[
0`
1a
1\
0^
1T
0U
1`
0a
0d
1g
1D
0C
0V
1U
0h
1i
1d
0g
1&
0%
0B
1C
1V
1X
0W
1h
0i
1%
0$
1B
1E
0A
0X
1W
1$
0#
1"
0E
1A
0"
1#
#420000
1!
1@
1[
0\
1^
0T
0`
1a
0D
0U
0d
1g
0&
0C
0V
0h
1i
0%
0B
1X
0W
0$
1E
0A
1"
0#
#440000
0!
1*
0@
1;
1Y
0[
#460000
1!
1@
1[
1\
1T
1D
1&
#480000
0!
0*
0)
0.
1(
1-
0@
0;
0:
19
0?
1>
1_
0Z
1b
0]
0Y
0[
1d
0\
0^
0T
1V
1`
0a
0D
1B
1U
0d
0&
1$
1C
0V
1%
0B
0$
#500000
1!
1@
1[
1\
1T
1D
1&
#520000
0!
1*
0@
1;
1Y
0[
#540000
1!
1@
1[
0\
1^
0T
0`
1a
0D
0U
1d
0&
0C
1V
0%
1B
1$
#560000
0!
0*
1)
1.
0@
0;
1:
1?
1Z
1]
0Y
0[
1`
1\
0^
1T
1U
0`
1D
1C
0U
1&
1%
0C
0%
#580000
1!
1@
1[
0\
1^
0T
1`
0D
1U
0&
1C
1%
#600000
0!
1*
0@
1;
1Y
0[
#620000
1!
1@
1[
1\
1T
1D
1&
#640000
0!
0*
0)
0.
0(
0-
0'
0,
1+
0@
0;
0:
09
08
0?
0>
0=
1<
1f
0c
0_
0Z
0e
0b
0]
0Y
0[
0\
0^
0a
0g
0T
1h
0i
0d
0`
0D
0U
0V
0X
1W
0&
0C
0B
0E
1A
0%
0$
1#
0"
#660000
1!
1@
1[
1\
1T
1D
1&
#680000
0!
1*
0@
1;
1Y
0[
#700000
1!
1@
1[
0\
1^
0T
1`
0D
1U
0&
1C
1%
#720000
0!
0*
1)
1.
0@
0;
1:
1?
1Z
1]
0Y
0[
0`
1a
1\
0^
1T
0U
1`
0a
1d
1D
0C
1V
1U
0d
1&
0%
1B
1C
0V
1%
1$
0B
0$
#740000
1!
1@
1[
0\
1^
0T
0`
1a
0D
0U
1d
0&
0C
1V
0%
1B
1$
#760000
0!
1*
0@
1;
1Y
0[
#780000
1!
1@
1[
1\
1T
1D
1&
#800000
0!
0*
0)
0.
1(
1-
0@
0;
0:
19
0?
1>
1_
0Z
1b
0]
0Y
0[
0d
1g
0\
0^
0T
0V
1`
0a
0h
1i
0D
0B
1X
0W
1U
1d
0g
0&
0$
1E
0A
1C
1V
1h
0i
1"
1%
0#
1B
0X
1W
1$
0E
1A
0"
1#
#820000
1!
1@
1[
1\
1T
1D
1&
#840000
0!
1*
0@
1;
1Y
0[
#860000
1!
1@
1[
0\
1^
0T
0`
1a
0D
0U
0d
1g
0&
0C
0V
0h
1i
0%
0B
1X
0W
0$
1E
0A
1"
0#
#880000
0!
0*
1)
1.
0@
0;
1:
1?
1Z
1]
0Y
0[
1`
1\
0^
1T
1U
0`
1D
1C
0U
1&
1%
0C
0%
#900000
1!
1@
1[
0\
1^
0T
1`
0D
1U
0&
1C
1%
#920000
0!
1*
0@
1;
1Y
0[
#940000
1!
1@
1[
1\
1T
1D
1&
#960000
0!
0*
0)
0.
0(
0-
1'
1,
0@
0;
0:
09
18
0?
0>
1=
1c
0_
0Z
1e
0b
0]
0Y
0[
1h
0\
0^
0a
0T
1W
1d
0g
0`
0D
1A
0U
1V
0h
0&
1#
0C
1B
0W
0%
1$
0A
0#
#980000
1!
1@
1[
1\
1T
1D
1&
