Decoder7segmentosCase/simulation/qsim/Decoder7segmentosCase.msim.vcd
$comment
	File created using the following command:
		vcd file Decoder7segmentosCase.msim.vcd -direction
$end
$date
	Tue Feb 22 17:49:27 2022
$end
$version
	ModelSim Version 10.5b
$end
$timescale
	1ps
$end

$scope module decoder7segmentoscase_vhd_vec_tst $end
$var wire 1 ! a $end
$var wire 1 " b $end
$var wire 1 # c $end
$var wire 1 $ d $end
$var wire 1 % e $end
$var wire 1 & f $end
$var wire 1 ' g $end
$var wire 1 ( S [3] $end
$var wire 1 ) S [2] $end
$var wire 1 * S [1] $end
$var wire 1 + S [0] $end

$scope module i1 $end
$var wire 1 , gnd $end
$var wire 1 - vcc $end
$var wire 1 . unknown $end
$var wire 1 / devoe $end
$var wire 1 0 devclrn $end
$var wire 1 1 devpor $end
$var wire 1 2 ww_devoe $end
$var wire 1 3 ww_devclrn $end
$var wire 1 4 ww_devpor $end
$var wire 1 5 ww_S [3] $end
$var wire 1 6 ww_S [2] $end
$var wire 1 7 ww_S [1] $end
$var wire 1 8 ww_S [0] $end
$var wire 1 9 ww_a $end
$var wire 1 : ww_b $end
$var wire 1 ; ww_c $end
$var wire 1 < ww_d $end
$var wire 1 = ww_e $end
$var wire 1 > ww_f $end
$var wire 1 ? ww_g $end
$var wire 1 @ \~QUARTUS_CREATED_ADC1~_CHSEL_bus\ [4] $end
$var wire 1 A \~QUARTUS_CREATED_ADC1~_CHSEL_bus\ [3] $end
$var wire 1 B \~QUARTUS_CREATED_ADC1~_CHSEL_bus\ [2] $end
$var wire 1 C \~QUARTUS_CREATED_ADC1~_CHSEL_bus\ [1] $end
$var wire 1 D \~QUARTUS_CREATED_ADC1~_CHSEL_bus\ [0] $end
$var wire 1 E \~QUARTUS_CREATED_ADC2~_CHSEL_bus\ [4] $end
$var wire 1 F \~QUARTUS_CREATED_ADC2~_CHSEL_bus\ [3] $end
$var wire 1 G \~QUARTUS_CREATED_ADC2~_CHSEL_bus\ [2] $end
$var wire 1 H \~QUARTUS_CREATED_ADC2~_CHSEL_bus\ [1] $end
$var wire 1 I \~QUARTUS_CREATED_ADC2~_CHSEL_bus\ [0] $end
$var wire 1 J \~QUARTUS_CREATED_GND~I_combout\ $end
$var wire 1 K \~QUARTUS_CREATED_UNVM~~busy\ $end
$var wire 1 L \~QUARTUS_CREATED_ADC1~~eoc\ $end
$var wire 1 M \~QUARTUS_CREATED_ADC2~~eoc\ $end
$var wire 1 N \a~output_o\ $end
$var wire 1 O \b~output_o\ $end
$var wire 1 P \c~output_o\ $end
$var wire 1 Q \d~output_o\ $end
$var wire 1 R \e~output_o\ $end
$var wire 1 S \f~output_o\ $end
$var wire 1 T \g~output_o\ $end
$var wire 1 U \S[1]~input_o\ $end
$var wire 1 V \S[2]~input_o\ $end
$var wire 1 W \S[3]~input_o\ $end
$var wire 1 X \S[0]~input_o\ $end
$var wire 1 Y \Mux0~0_combout\ $end
$var wire 1 Z \Mux1~0_combout\ $end
$var wire 1 [ \Mux2~0_combout\ $end
$var wire 1 \ \Mux3~0_combout\ $end
$var wire 1 ] \Mux4~0_combout\ $end
$var wire 1 ^ \Mux5~0_combout\ $end
$var wire 1 _ \Mux6~0_combout\ $end
$var wire 1 ` \ALT_INV_Mux6~0_combout\ $end
$upscope $end
$upscope $end
$enddefinitions $end
#0
$dumpvars
0!
0"
0#
0$
0%
0&
1'
0,
1-
x.
1/
10
11
12
13
14
09
0:
0;
0<
0=
0>
1?
0J
zK
zL
zM
0N
0O
0P
0Q
0R
0S
1T
0U
0V
0W
0X
0Y
0Z
0[
0\
0]
0^
0_
1`
0(
0)
0*
0+
05
06
07
08
0@
0A
0B
0C
0D
0E
0F
0G
0H
0I
$end
#40000
1+
18
1X
1Y
1\
1]
1^
1S
1R
1Q
1N
1>
1=
1<
19
1&
1%
1$
1!
#80000
0+
1*
08
17
1U
0X
0Y
1[
0\
0]
1_
0`
0R
0Q
1P
0N
0T
0=
0<
1;
09
0?
0%
0$
1#
0!
0'
#120000
1+
18
1X
0[
1]
1R
0P
1=
0;
1%
0#
#160000
0+
0*
1)
08
07
16
1V
0U
0X
1Y
1\
0^
0S
1Q
1N
0>
1<
19
0&
1$
1!
#200000
1+
18
1X
0Y
1Z
0\
0Q
1O
0N
0<
1:
09
0$
1"
0!
#240000
0+
1*
08
17
1U
0X
0]
0R
0=
0%
#280000
1+
18
1X
0Z
1\
1]
1^
0_
1`
1S
1R
1Q
0O
1T
1>
1=
1<
0:
1?
1&
1%
1$
0"
1'
#320000
0+
0*
0)
1(
08
07
06
15
1W
0V
0U
0X
0\
0]
0^
1_
0`
0S
0R
0Q
0T
0>
0=
0<
0?
0&
0%
0$
0'
#360000
1+
18
1X
1]
1R
1=
1%
#400000
0+
1*
08
17
1U
0X
1\
0]
0R
1Q
0=
1<
0%
1$
#440000
1+
18
1X
1Y
1Z
0\
0Q
1O
1N
0<
1:
19
0$
1"
1!
#480000
0+
0*
1)
08
07
16
1V
0U
0X
0Y
1[
0_
1`
1P
0N
1T
1;
09
1?
1#
0!
1'
#520000
1+
18
1X
1Y
0Z
0[
1^
1_
0`
1S
0P
0O
1N
0T
1>
0;
0:
19
0?
1&
0#
0"
1!
0'
#560000
0+
1*
08
17
1U
0X
0Y
1Z
1[
0^
0S
1P
1O
0N
0>
1;
1:
09
0&
1#
1"
0!
#600000
1+
18
1X
1\
1Q
1<
1$
#640000
0+
0*
0)
0(
08
07
06
05
0W
0V
0U
0X
0Z
0[
0\
0_
1`
0Q
0P
0O
1T
0<
0;
0:
1?
0$
0#
0"
1'
#680000
1+
18
1X
1Y
1\
1]
1^
1S
1R
1Q
1N
1>
1=
1<
19
1&
1%
1$
1!
#720000
0+
1*
08
17
1U
0X
0Y
1[
0\
0]
1_
0`
0R
0Q
1P
0N
0T
0=
0<
1;
09
0?
0%
0$
1#
0!
0'
#760000
1+
18
1X
0[
1]
1R
0P
1=
0;
1%
0#
#800000
0+
0*
1)
08
07
16
1V
0U
0X
1Y
1\
0^
0S
1Q
1N
0>
1<
19
0&
1$
1!
#840000
1+
18
1X
0Y
1Z
0\
0Q
1O
0N
0<
1:
09
0$
1"
0!
#880000
0+
1*
08
17
1U
0X
0]
0R
0=
0%
#920000
1+
18
1X
0Z
1\
1]
1^
0_
1`
1S
1R
1Q
0O
1T
1>
1=
1<
0:
1?
1&
1%
1$
0"
1'
#960000
0+
0*
0)
1(
08
07
06
15
1W
0V
0U
0X
0\
0]
0^
1_
0`
0S
0R
0Q
0T
0>
0=
0<
0?
0&
0%
0$
0'
